{
  "aws_project_region": "eu-west-1",
  "aws_cognito_identity_pool_id": "eu-west-1:95da7f57-4570-46a0-87fe-6d729194547c",
  "aws_cognito_region": "eu-west-1",
  "aws_user_pools_id": "eu-west-1_gsHvEKT0i",
  "aws_user_pools_web_client_id": "lumhimd7akug0iboboe8cf5q1",
  "oauth": {},
  "aws_cognito_username_attributes": [
    "EMAIL"
  ],
  "aws_cognito_social_providers": [],
  "aws_cognito_signup_attributes": [
    "EMAIL"
  ],
  "aws_cognito_mfa_configuration": "OFF",
  "aws_cognito_mfa_types": [
    "SMS"
  ],
  "aws_cognito_password_protection_settings": {
    "passwordPolicyMinLength": 8,
    "passwordPolicyCharacters": []
  },
  "aws_cognito_verification_mechanisms": [
    "EMAIL"
  ],
  "aws_cloud_logic_custom": [
    {
      "name": "supplyChainApi",
      "endpoint": "https://oqsjdgwkw0.execute-api.eu-west-1.amazonaws.com/dev",
      "region": "eu-west-1"
    }
  ],
  "aws_dynamodb_all_tables_region": "eu-west-1",
  "aws_dynamodb_table_schemas": [
    {
      "tableName": "supplyChainTable-dev",
      "region": "eu-west-1"
    }
  ]
}